4,0.050109,0.129869,0.129869,0.050109,0.701774,0.699139,0.749745,0.751326,LP,
4,0.053849,0.063700,0.063700,0.053849,0.717835,0.717552,0.743023,0.743240,0,
4,0.063536,0.072485,0.072485,0.063536,0.718293,0.718038,0.741814,0.742013,P,
4,0.073605,0.081971,0.081971,0.073605,0.718069,0.717830,0.741149,0.741336,D,
4,0.085459,0.094497,0.094497,0.085459,0.718007,0.717749,0.740477,0.740679,3,
4,0.094792,0.103223,0.103223,0.094792,0.717224,0.716983,0.740090,0.740280,7,
4,0.103442,0.112505,0.112505,0.103442,0.716403,0.716142,0.740105,0.740308,9,
4,0.113147,0.122341,0.122341,0.113147,0.716498,0.716235,0.739213,0.739421,8,
