4,0.863772,0.931590,0.931886,0.861699,0.675698,0.680970,0.722615,0.715762,LP,
4,0.866952,0.875569,0.874776,0.866020,0.689855,0.690584,0.709940,0.709116,H,
4,0.875580,0.882683,0.882024,0.874809,0.690704,0.691306,0.710201,0.709524,A,
4,0.883576,0.891208,0.890647,0.882884,0.691594,0.692241,0.712621,0.711885,0,
4,0.894465,0.903314,0.902950,0.893942,0.691080,0.691823,0.713022,0.712172,0,
4,0.905217,0.909278,0.909030,0.904898,0.692392,0.692734,0.713330,0.712941,I,
4,0.910749,0.919456,0.919385,0.910522,0.692358,0.693089,0.714235,0.713400,3,
4,0.919567,0.927201,0.927266,0.919502,0.694106,0.694751,0.714766,0.714035,4,
