4,0.090667,0.157926,0.157037,0.090074,0.740735,0.734939,0.779204,0.783946,LP,
4,0.093603,0.101244,0.100928,0.093303,0.752408,0.751782,0.773227,0.773794,0,
4,0.101135,0.109588,0.109246,0.100811,0.751519,0.750826,0.772878,0.773504,P,
4,0.109962,0.117289,0.116956,0.109644,0.751916,0.751318,0.771825,0.772369,B,
4,0.121037,0.129419,0.129051,0.120688,0.750851,0.750166,0.771280,0.771901,2,
4,0.129873,0.137078,0.136690,0.129501,0.750175,0.749586,0.770992,0.771525,5,
4,0.137555,0.144996,0.144603,0.137178,0.750197,0.749591,0.770403,0.770954,8,
4,0.145447,0.152587,0.152169,0.145045,0.749696,0.749115,0.770424,0.770952,3,
