4,0.245233,0.297381,0.296788,0.245233,0.590901,0.591428,0.622530,0.623584,LP,
4,0.247979,0.254064,0.254012,0.247963,0.602067,0.602065,0.618130,0.618223,H,
4,0.254095,0.260415,0.260320,0.254039,0.602208,0.602205,0.619187,0.619291,E,
4,0.260038,0.266442,0.266323,0.259954,0.602281,0.602277,0.617581,0.617677,M,
4,0.268880,0.275398,0.275226,0.268745,0.601998,0.601996,0.617553,0.617651,3,
4,0.275311,0.280555,0.280357,0.275143,0.601723,0.601723,0.616946,0.617023,7,
4,0.281111,0.286981,0.286760,0.280920,0.601728,0.601728,0.616126,0.616207,6,
4,0.286963,0.293287,0.293019,0.286728,0.601257,0.601259,0.616475,0.616565,3,
