4,0.762636,0.850398,0.850768,0.760044,0.707539,0.695773,0.747878,0.763005,LP,
4,0.766372,0.777526,0.776266,0.764873,0.715808,0.714254,0.747905,0.749721,B,
4,0.781236,0.790526,0.789566,0.780085,0.713868,0.712573,0.745044,0.746550,Y,
4,0.794057,0.804292,0.803602,0.793157,0.712109,0.710682,0.743290,0.744953,J,
4,0.809699,0.820189,0.819813,0.809110,0.708011,0.706561,0.739284,0.740979,5,
4,0.822286,0.832566,0.832435,0.821941,0.707450,0.706021,0.739685,0.741361,8,
4,0.834276,0.845085,0.845210,0.834182,0.705830,0.704328,0.737207,0.738967,0,
