4,0.677551,0.780468,0.784170,0.680142,0.551911,0.553686,0.642443,0.638893,LP,
4,0.685490,0.696160,0.697548,0.686821,0.574720,0.574951,0.618525,0.618203,C,
4,0.697051,0.707912,0.709298,0.698382,0.573670,0.573902,0.615636,0.615315,G,
4,0.708284,0.718176,0.719514,0.709574,0.577460,0.577679,0.616570,0.616276,W,
4,0.730557,0.740801,0.742366,0.732070,0.576746,0.576970,0.619270,0.618961,6,
4,0.742053,0.752500,0.754211,0.743708,0.574050,0.574272,0.618873,0.618560,3,
4,0.752618,0.764089,0.765814,0.754281,0.574423,0.574668,0.618084,0.617743,8,
4,0.764074,0.774830,0.776634,0.765820,0.574566,0.574795,0.618840,0.618519,3,
