4,0.629444,0.809197,0.812160,0.632901,0.630723,0.625176,0.686986,0.694910,LP,
4,0.647798,0.664605,0.667308,0.650539,0.635052,0.634516,0.685788,0.686502,W,
4,0.667033,0.681763,0.684147,0.669447,0.636194,0.635719,0.681443,0.682058,0,
4,0.684289,0.698964,0.701314,0.686669,0.634053,0.633585,0.679150,0.679758,B,
4,0.721637,0.735227,0.737299,0.723733,0.635103,0.634663,0.675785,0.676343,G,
4,0.736671,0.753156,0.755338,0.738884,0.632805,0.632278,0.676087,0.676768,0,
4,0.758004,0.773129,0.775351,0.760257,0.631149,0.630668,0.675906,0.676532,2,
4,0.774369,0.788778,0.790993,0.776613,0.631115,0.630656,0.676221,0.676820,0,
4,0.788250,0.803708,0.806075,0.790651,0.629431,0.628942,0.678139,0.678790,9,
