4,0.414167,0.564167,0.571667,0.420833,0.715539,0.685464,0.728070,0.761905,LP,
4,0.430230,0.446039,0.451267,0.435385,0.719351,0.716126,0.750893,0.754422,M,
4,0.462085,0.475932,0.480830,0.466927,0.714891,0.712052,0.743304,0.746386,P,
4,0.478209,0.492184,0.497522,0.483488,0.710004,0.707150,0.740456,0.743573,E,
4,0.499155,0.513052,0.518449,0.504496,0.706228,0.703386,0.736150,0.739252,7,
4,0.513514,0.529218,0.534797,0.519030,0.702565,0.699359,0.732520,0.736025,2,
4,0.529723,0.544937,0.550614,0.535341,0.698566,0.695466,0.728541,0.731932,0,
4,0.547232,0.561956,0.567782,0.553000,0.695132,0.692130,0.725355,0.728642,2,
