4,0.685089,0.768495,0.780567,0.696283,0.485528,0.446965,0.478276,0.518158,LP,
4,0.693698,0.703783,0.713707,0.703528,0.481177,0.476515,0.504667,0.509469,F,
4,0.704633,0.712646,0.721429,0.713351,0.478446,0.474737,0.499364,0.503170,E,
4,0.716280,0.725293,0.733707,0.724625,0.473550,0.469376,0.492556,0.496833,4,
4,0.725419,0.731727,0.740239,0.733883,0.469732,0.466810,0.490056,0.493050,5,
4,0.732829,0.739422,0.747966,0.741323,0.465865,0.462813,0.485892,0.489020,8,
4,0.744368,0.751887,0.760774,0.753196,0.460113,0.456632,0.480226,0.483795,S,
4,0.752953,0.760994,0.770312,0.762207,0.456617,0.452893,0.477335,0.481157,P,
