4,0.300000,0.503333,0.504167,0.300000,0.621011,0.622340,0.692819,0.688830,LP,
4,0.321466,0.342576,0.342711,0.321533,0.626370,0.626529,0.680990,0.680612,H,
4,0.344577,0.364318,0.364500,0.344702,0.630264,0.630426,0.678938,0.678593,H,
4,0.386659,0.407754,0.408080,0.386920,0.628969,0.629137,0.681105,0.680731,P,
4,0.408276,0.428726,0.429122,0.408608,0.628916,0.629077,0.681963,0.681598,K,
4,0.435825,0.454967,0.455394,0.436198,0.631458,0.631617,0.678983,0.678654,1,
4,0.456366,0.477038,0.477553,0.456819,0.628899,0.629061,0.679042,0.678688,5,
4,0.477180,0.497444,0.498043,0.477716,0.629054,0.629212,0.681404,0.681049,6,
