4,0.171565,0.293105,0.296440,0.173417,0.668424,0.669611,0.723617,0.719463,LP,
4,0.182541,0.194206,0.195766,0.183999,0.674611,0.674758,0.712810,0.712453,M,
4,0.206475,0.218085,0.219789,0.208080,0.677208,0.677367,0.714442,0.714083,P,
4,0.219004,0.231083,0.232975,0.220788,0.673899,0.674045,0.712884,0.712521,E,
4,0.235252,0.248182,0.250175,0.237131,0.675230,0.675393,0.713529,0.713139,7,
4,0.247653,0.261965,0.264039,0.249601,0.675859,0.676042,0.713650,0.713221,2,
4,0.262417,0.275306,0.277626,0.264616,0.675030,0.675189,0.715215,0.714821,0,
4,0.276508,0.289260,0.291601,0.278734,0.675085,0.675241,0.713697,0.713319,2,
