4,0.336574,0.690648,0.689907,0.336574,0.672076,0.678768,0.766725,0.766725,LP,
4,0.362624,0.397232,0.397144,0.362586,0.683987,0.684562,0.745654,0.745506,G,
4,0.404412,0.439853,0.439698,0.404310,0.683617,0.684213,0.747209,0.747068,N,
4,0.444506,0.481116,0.480905,0.444347,0.685024,0.685635,0.746789,0.746640,5,
4,0.487693,0.523680,0.523418,0.487480,0.687654,0.688240,0.747011,0.746864,7,
4,0.544452,0.578424,0.578068,0.544144,0.688261,0.688816,0.750701,0.750587,L,
4,0.583933,0.621254,0.620836,0.583567,0.687967,0.688585,0.750309,0.750179,J,
4,0.622875,0.659920,0.659472,0.622475,0.690769,0.691365,0.749535,0.749399,U,
