4,0.696605,0.756111,0.764753,0.705247,0.482923,0.476010,0.529335,0.539210,LP,
4,0.703317,0.711453,0.715465,0.707328,0.501159,0.500079,0.525921,0.527189,5,
4,0.711196,0.719395,0.723506,0.715307,0.500036,0.498949,0.525240,0.526521,N,
4,0.718448,0.726079,0.730218,0.722586,0.498377,0.497370,0.523670,0.524859,H,
4,0.726384,0.733893,0.737864,0.730355,0.498096,0.497100,0.522160,0.523328,E,
4,0.733378,0.739910,0.743941,0.737409,0.496774,0.495910,0.521204,0.522220,7,
4,0.739512,0.746913,0.751169,0.743769,0.495683,0.494705,0.521247,0.522406,0,
4,0.746692,0.754257,0.758528,0.750965,0.493954,0.492960,0.519421,0.520600,0,
