4,0.180783,0.260061,0.263395,0.184117,0.693889,0.683333,0.754444,0.760556,LP,
4,0.182857,0.192728,0.194590,0.184718,0.707132,0.705929,0.743494,0.744388,B,
4,0.193195,0.201064,0.202718,0.194848,0.707674,0.706727,0.740322,0.741050,F,
4,0.202020,0.209660,0.211246,0.203607,0.705355,0.704428,0.736877,0.737601,Y,
4,0.211144,0.219711,0.221263,0.212696,0.705206,0.704172,0.736161,0.736971,C,
4,0.229653,0.238857,0.240458,0.231255,0.703365,0.702258,0.735800,0.736659,3,
4,0.238495,0.248702,0.250404,0.240197,0.700791,0.699551,0.735489,0.736437,3,
4,0.250024,0.257233,0.258972,0.251763,0.700311,0.699440,0.736413,0.737073,I,
