4,0.685376,0.737968,0.740190,0.689326,0.635157,0.635552,0.679409,0.681779,LP,
4,0.693707,0.699505,0.701262,0.695564,0.643151,0.643140,0.666271,0.666437,F,
4,0.699598,0.705686,0.707436,0.701458,0.642934,0.642924,0.667258,0.667439,E,
4,0.707658,0.713581,0.715173,0.709354,0.642430,0.642424,0.666271,0.666443,5,
4,0.713546,0.718778,0.720269,0.715126,0.642365,0.642360,0.665875,0.666025,4,
4,0.721215,0.726593,0.727872,0.722580,0.643251,0.643241,0.665174,0.665326,N,
4,0.726952,0.732502,0.733786,0.728330,0.642188,0.642184,0.665768,0.665929,T,
4,0.732708,0.737711,0.738824,0.733899,0.643502,0.643491,0.665263,0.665406,A,
