4,0.502315,0.695648,0.687500,0.495648,0.576218,0.632822,0.695530,0.640036,LP,
4,0.523857,0.542400,0.537323,0.518885,0.591977,0.597397,0.643612,0.638271,M,
4,0.563823,0.583845,0.578968,0.559049,0.606592,0.612441,0.654721,0.648949,J,
4,0.583949,0.603368,0.598444,0.579123,0.612921,0.618594,0.660349,0.654751,E,
4,0.611186,0.630402,0.625341,0.606222,0.621380,0.626992,0.668646,0.663106,4,
4,0.631601,0.649357,0.643879,0.626218,0.625950,0.631137,0.675317,0.670202,2,
4,0.650464,0.670456,0.665010,0.645122,0.629426,0.635268,0.678236,0.672472,6,
4,0.669862,0.688038,0.682340,0.664262,0.635838,0.641149,0.685283,0.680045,7,
