4,0.170781,0.314627,0.307516,0.162627,0.452829,0.485977,0.536616,0.504907,LP,
4,0.186212,0.201264,0.195438,0.180305,0.461947,0.465398,0.503461,0.500121,R,
4,0.202803,0.217047,0.211446,0.197127,0.465550,0.468816,0.505838,0.502674,X,
4,0.219305,0.233629,0.227996,0.213596,0.467818,0.471107,0.508799,0.505615,6,
4,0.235264,0.249943,0.244246,0.229487,0.471282,0.474653,0.513249,0.509989,0,
4,0.258122,0.273820,0.268164,0.252379,0.476230,0.479836,0.518860,0.515374,G,
4,0.276706,0.290937,0.285669,0.271365,0.481548,0.484814,0.521650,0.518487,T,
4,0.292872,0.308374,0.303101,0.287518,0.485635,0.489191,0.526576,0.523134,U,
