4,0.770547,0.827337,0.833016,0.777213,0.423419,0.425723,0.473781,0.473452,LP,
4,0.776830,0.784753,0.788356,0.780512,0.434086,0.434350,0.462102,0.461993,L,
4,0.783867,0.791043,0.793985,0.786868,0.436052,0.436283,0.459227,0.459113,B,
4,0.792708,0.799782,0.802793,0.795779,0.436050,0.436279,0.460199,0.460091,G,
4,0.803863,0.811378,0.814513,0.807067,0.434235,0.434490,0.460041,0.459925,5,
4,0.811503,0.818722,0.821828,0.814674,0.434639,0.434883,0.460597,0.460487,9,
4,0.819313,0.826046,0.828983,0.822309,0.435833,0.436055,0.460768,0.460666,3,
