4,0.729397,0.818611,0.819351,0.729767,0.574950,0.560578,0.650998,0.674351,LP,
4,0.733890,0.745911,0.746117,0.734071,0.600848,0.598590,0.644020,0.646840,0,
4,0.747101,0.757854,0.758081,0.747307,0.598540,0.596518,0.640746,0.643264,2,
4,0.758629,0.769762,0.770023,0.758867,0.594745,0.592671,0.638127,0.640735,6,
4,0.781592,0.792710,0.793014,0.781874,0.590394,0.588323,0.632462,0.635063,K,
4,0.792981,0.804719,0.805056,0.793296,0.588218,0.586032,0.631073,0.633837,H,
4,0.805012,0.814985,0.815313,0.805323,0.588641,0.586755,0.627785,0.630124,R,
