4,0.805721,0.878868,0.876235,0.804258,0.508854,0.509634,0.534605,0.530313,LP,
4,0.810981,0.817841,0.816674,0.809885,0.510357,0.510453,0.526137,0.525806,A,
4,0.818470,0.825905,0.824564,0.817215,0.509751,0.509842,0.526923,0.526559,K,
4,0.826917,0.833989,0.832636,0.825642,0.510373,0.510469,0.526845,0.526505,5,
4,0.834615,0.842234,0.840989,0.833445,0.510614,0.510719,0.525051,0.524720,4,
4,0.846721,0.854226,0.852700,0.845280,0.510370,0.510467,0.526885,0.526539,V,
4,0.854771,0.863042,0.861383,0.853210,0.510340,0.510445,0.527472,0.527087,Z,
4,0.863715,0.871833,0.870075,0.862056,0.511384,0.511502,0.528740,0.528349,A,
