4,0.431204,0.569722,0.569352,0.431574,0.518703,0.518703,0.614365,0.615477,LP,
4,0.439443,0.453405,0.453540,0.439618,0.539341,0.539317,0.591247,0.591332,B,
4,0.453411,0.467339,0.467433,0.453546,0.541739,0.541712,0.593569,0.593656,K,
4,0.469072,0.482966,0.483015,0.469162,0.538685,0.538662,0.590468,0.590551,W,
4,0.499711,0.513534,0.513496,0.499712,0.538031,0.538008,0.589686,0.589768,2,
4,0.514108,0.527896,0.527816,0.514068,0.540417,0.540392,0.591994,0.592078,3,
4,0.530189,0.543938,0.543813,0.530102,0.541591,0.541565,0.593090,0.593176,7,
4,0.543947,0.557668,0.557503,0.543821,0.537959,0.537937,0.589423,0.589505,7,
