4,0.128333,0.286667,0.291667,0.131667,0.657950,0.653417,0.706067,0.712343,LP,
4,0.142992,0.160109,0.162813,0.145560,0.664289,0.663776,0.703570,0.704222,M,
4,0.173598,0.190727,0.193551,0.176293,0.663167,0.662655,0.700581,0.701227,W,
4,0.191946,0.208594,0.211438,0.194671,0.664175,0.663672,0.700030,0.700658,U,
4,0.213831,0.228922,0.231757,0.216564,0.663781,0.663324,0.697671,0.698235,4,
4,0.229299,0.246421,0.249423,0.232184,0.662992,0.662475,0.697270,0.697911,6,
4,0.246975,0.262691,0.265930,0.250104,0.661526,0.661054,0.697152,0.697742,8,
4,0.263895,0.280348,0.283896,0.267322,0.659634,0.659144,0.697086,0.697705,2,
