4,0.106222,0.238566,0.229677,0.097233,0.522222,0.537906,0.583832,0.563388,LP,
4,0.121097,0.132059,0.125940,0.114977,0.529569,0.530919,0.559609,0.557991,H,
4,0.133894,0.144401,0.138381,0.127872,0.531889,0.533190,0.561728,0.560175,U,
4,0.145295,0.158110,0.151670,0.138851,0.533311,0.534897,0.565802,0.563886,M,
4,0.159527,0.171860,0.165881,0.153543,0.534911,0.536436,0.565488,0.563667,S,
4,0.172561,0.183062,0.176852,0.166344,0.535802,0.537095,0.567581,0.566027,T,
4,0.183680,0.194495,0.188447,0.177624,0.538075,0.539414,0.569426,0.567824,E,
4,0.194867,0.205905,0.199864,0.188818,0.540242,0.541615,0.571911,0.570270,R,
4,0.208271,0.218830,0.212748,0.202180,0.540358,0.541658,0.572529,0.570968,3,
4,0.219082,0.230498,0.224390,0.212962,0.543572,0.544995,0.576356,0.574650,D,
