4,0.449537,0.579414,0.579167,0.449537,0.752891,0.754866,0.839790,0.833865,LP,
4,0.459811,0.473970,0.473949,0.459802,0.781516,0.781883,0.819771,0.819204,7,
4,0.474510,0.489084,0.489052,0.474490,0.782985,0.783369,0.819233,0.818657,V,
4,0.490014,0.504655,0.504607,0.489978,0.781905,0.782282,0.821537,0.820948,9,
4,0.506294,0.520974,0.520915,0.506247,0.783950,0.784336,0.821584,0.820997,8,
4,0.521815,0.536139,0.536071,0.521759,0.785046,0.785427,0.820315,0.819752,8,
4,0.537774,0.552554,0.552469,0.537703,0.785227,0.785618,0.822047,0.821460,8,
4,0.552240,0.568039,0.567941,0.552156,0.784861,0.785275,0.822260,0.821635,9,
