4,0.308889,0.465926,0.461185,0.304148,0.413284,0.416444,0.522321,0.516395,LP,
4,0.311554,0.332852,0.329844,0.308546,0.434141,0.434645,0.500341,0.499599,0,
4,0.334371,0.356943,0.354111,0.331538,0.437582,0.438127,0.500236,0.499453,7,
4,0.357274,0.380358,0.377319,0.354235,0.436001,0.436551,0.503444,0.502634,8,
4,0.386495,0.399798,0.396889,0.383586,0.436969,0.437286,0.501522,0.501061,1,
4,0.412703,0.435773,0.433009,0.409939,0.436597,0.437143,0.498559,0.497776,Y,
4,0.437762,0.459586,0.456623,0.434799,0.437232,0.437749,0.503853,0.503095,A,
