4,0.384889,0.522173,0.518420,0.379358,0.442091,0.448148,0.534272,0.528214,LP,
4,0.390214,0.403511,0.400128,0.386721,0.459606,0.460191,0.515413,0.514828,1,
4,0.406298,0.428370,0.425250,0.402998,0.458376,0.459348,0.513564,0.512592,8,
4,0.427489,0.448075,0.445136,0.424384,0.461605,0.462511,0.516370,0.515464,8,
4,0.449225,0.468282,0.465619,0.446414,0.462805,0.463644,0.515327,0.514488,7,
4,0.475244,0.495827,0.493386,0.472644,0.465131,0.466037,0.517540,0.516634,P,
4,0.494887,0.517458,0.514934,0.492169,0.461062,0.462056,0.519182,0.518188,Q,
