4,0.406815,0.550222,0.546074,0.403852,0.495802,0.502914,0.592593,0.587062,LP,
4,0.407553,0.428608,0.426717,0.405769,0.517452,0.518443,0.573027,0.572176,8,
4,0.430521,0.451418,0.449565,0.428765,0.520540,0.521519,0.571824,0.570973,3,
4,0.455816,0.468781,0.466725,0.453823,0.518257,0.518869,0.572290,0.571762,1,
4,0.471373,0.496128,0.493884,0.469253,0.518543,0.519714,0.574282,0.573277,2,
4,0.501639,0.522970,0.520751,0.499519,0.519771,0.520781,0.571538,0.570662,Y,
4,0.522903,0.543704,0.541200,0.520503,0.520755,0.521739,0.576514,0.575670,Q,
