4,0.421704,0.543185,0.539037,0.417259,0.415210,0.414420,0.491852,0.492247,LP,
4,0.423694,0.443633,0.440919,0.420951,0.430870,0.430754,0.478425,0.478501,2,
4,0.442311,0.459982,0.457415,0.439717,0.432614,0.432513,0.478070,0.478138,9,
4,0.462043,0.477677,0.475208,0.459552,0.430804,0.430713,0.474981,0.475043,7,
4,0.476458,0.496992,0.494463,0.473899,0.431553,0.431433,0.477330,0.477410,2,
4,0.502313,0.519319,0.516912,0.499882,0.430165,0.430066,0.474341,0.474409,K,
4,0.519707,0.537761,0.535212,0.517130,0.430359,0.430254,0.477711,0.477780,K,
