4,0.291123,0.503667,0.498136,0.286383,0.405745,0.414700,0.546387,0.538486,LP,
4,0.293374,0.323697,0.320710,0.290458,0.434727,0.435972,0.517331,0.516177,D,
4,0.325367,0.357076,0.353944,0.322309,0.433975,0.435281,0.518378,0.517172,0,
4,0.364843,0.399428,0.396279,0.361772,0.437430,0.438851,0.519722,0.518406,6,
4,0.399042,0.432140,0.428960,0.395937,0.439561,0.440920,0.520584,0.519324,9,
4,0.430525,0.459464,0.456548,0.427667,0.439661,0.440851,0.512445,0.511333,4,
4,0.463232,0.496210,0.493023,0.460115,0.443447,0.444800,0.521013,0.519755,9,
