4,0.406753,0.523099,0.519741,0.404185,0.473152,0.477630,0.552955,0.548214,LP,
4,0.409237,0.425721,0.424133,0.407715,0.490443,0.491087,0.535241,0.534575,4,
4,0.427172,0.444399,0.442770,0.425610,0.492749,0.493423,0.536716,0.536019,3,
4,0.445202,0.461357,0.459630,0.443539,0.491864,0.492495,0.536619,0.535966,7,
4,0.461382,0.478617,0.476799,0.459634,0.491855,0.492528,0.537220,0.536524,2,
4,0.485009,0.500835,0.498862,0.483102,0.492263,0.492880,0.539137,0.538498,X,
4,0.503759,0.519937,0.517863,0.501753,0.493437,0.494068,0.540836,0.540182,T,
