4,0.333111,0.507037,0.507630,0.334000,0.394667,0.391111,0.499358,0.502914,LP,
4,0.342254,0.360919,0.361445,0.342800,0.418702,0.418320,0.485972,0.486354,1,
4,0.363831,0.387355,0.387825,0.364324,0.419538,0.419057,0.482802,0.483283,3,
4,0.388970,0.413973,0.414410,0.389432,0.417663,0.417152,0.480112,0.480624,5,
4,0.417727,0.440012,0.440445,0.418183,0.415768,0.415312,0.481611,0.482067,7,
4,0.450975,0.477238,0.477631,0.451395,0.411915,0.411378,0.477437,0.477975,V,
4,0.478017,0.499722,0.500087,0.478404,0.414020,0.413577,0.478769,0.479213,D,
